<?xml version="1.0" standalone="no"?>
<!DOCTYPE svg PUBLIC "-//W3C//DTD SVG 20010904//EN"
 "http://www.w3.org/TR/2001/REC-SVG-20010904/DTD/svg10.dtd">
<svg version="1.0" xmlns="http://www.w3.org/2000/svg"
 width="700.000000pt" height="700.000000pt" viewBox="0 0 700.000000 700.000000"
 preserveAspectRatio="xMidYMid meet">
<metadata>
Created by potrace 1.11, written by Peter Selinger 2001-2013
</metadata>
<g transform="translate(0.000000,700.000000) scale(0.100000,-0.100000)"
fill="#000000" stroke="none">
<path d="M2360 5302 c-10 -1 -65 -135 -157 -380 -364 -969 -564 -1499 -572
-1517 -5 -11 -57 -148 -116 -305 -171 -458 -497 -1325 -500 -1328 -1 -1 -43
-3 -93 -4 l-92 -1 0 -36 0 -36 262 0 c165 0 265 4 269 10 4 6 6 21 5 35 -1 25
-3 25 -90 27 -48 1 -90 3 -92 5 -2 2 24 76 57 164 34 87 71 186 84 219 22 60
83 221 282 745 57 151 109 289 115 305 6 17 17 44 24 60 11 26 105 275 194
515 16 41 76 201 135 355 59 154 117 307 129 339 18 48 24 56 30 40 4 -10 66
-174 137 -364 72 -190 141 -372 154 -405 13 -33 58 -152 100 -263 42 -112 94
-248 115 -303 22 -54 87 -226 145 -381 59 -156 110 -292 115 -303 5 -11 23
-58 41 -105 17 -47 48 -130 69 -185 104 -272 161 -428 156 -433 -3 -2 -48 -4
-99 -4 l-94 2 6 -37 6 -36 455 0 c250 1 463 2 473 2 14 1 17 7 13 29 -2 15 -5
31 -5 35 -1 5 -36 8 -78 7 -145 -3 -136 -5 -154 48 -9 26 -60 162 -114 302
-182 478 -287 755 -316 835 -16 44 -34 89 -39 100 -5 11 -41 103 -79 205 -38
102 -142 375 -230 608 -218 573 -329 865 -356 937 -84 222 -186 490 -190 493
-5 5 -85 8 -105 4z"/>
<path d="M3208 5302 c-24 -3 -28 -8 -28 -37 l0 -34 112 -3 112 -3 1 -520 1
-520 66 -170 c36 -93 87 -226 112 -295 26 -69 51 -134 56 -145 5 -11 23 -58
40 -105 17 -47 49 -130 70 -185 21 -55 65 -169 97 -254 l58 -154 5 298 5 297
105 -124 c58 -68 115 -134 126 -148 12 -14 41 -48 65 -75 24 -28 64 -75 89
-105 25 -29 50 -58 55 -64 6 -6 58 -67 115 -136 58 -69 107 -127 111 -130 3
-3 70 -81 150 -175 155 -183 303 -357 379 -445 57 -66 172 -201 218 -255 17
-21 30 -40 28 -42 -2 -2 -34 -4 -70 -4 l-66 0 0 -35 c0 -28 4 -34 23 -35 28
-1 897 -1 915 0 7 1 12 15 12 34 l0 33 -67 2 c-37 1 -69 6 -72 11 -3 5 -33 40
-67 77 -34 38 -98 112 -144 164 -161 186 -196 225 -240 275 -42 48 -55 63 -97
111 -10 12 -45 52 -78 89 -33 38 -80 92 -104 119 -25 28 -50 56 -55 62 -6 6
-31 35 -55 64 -25 29 -50 58 -56 64 -5 6 -39 45 -75 86 -36 41 -67 77 -70 80
-7 6 -186 212 -221 254 -13 16 -31 36 -40 45 -9 9 -114 129 -234 266 -120 138
-233 267 -251 287 -19 20 -34 41 -34 46 0 10 12 24 187 208 66 71 142 152 168
179 213 225 341 361 402 425 39 41 88 93 109 115 20 22 96 102 168 179 72 76
156 165 186 197 l55 59 77 1 76 1 4 34 c5 40 38 36 -287 36 -118 0 -222 -1
-230 -1 -10 -1 -15 -12 -15 -35 l0 -35 76 0 c42 0 78 -2 80 -4 3 -3 -8 -15
-260 -281 -83 -87 -171 -179 -195 -205 -24 -25 -85 -89 -135 -142 -50 -52
-161 -169 -246 -259 -193 -204 -300 -317 -424 -445 l-95 -100 -1 718 0 717 33
1 c17 0 66 1 107 2 l75 2 3 33 c3 25 -1 32 -15 33 -57 3 -883 3 -905 1z"/>
</g>
</svg>
